<?xml version="1.0"?><svg width="392.75583" height="273.53708" xmlns="http://www.w3.org/2000/svg" xmlns:xlink="http://www.w3.org/1999/xlink">
 <title>Red rectangle button</title>
 <defs>
  <clipPath id="clipPath3828">
   <rect width="395.50385" height="138.17282" ry="18.904718" x="-413.25079" y="357.69519" id="rect3830" fill=" rgb(255, 102, 0)"/>
  </clipPath>
  <clipPath id="clipPath3824">
   <rect width="395.50385" height="138.17282" ry="18.904718" x="-413.25079" y="357.69519" id="rect3826" fill=" rgb(255, 102, 0)"/>
  </clipPath>
  <clipPath id="clipPath8607">
   <rect width="395.50385" height="138.17282" ry="18.904718" x="-413.25079" y="357.69519" id="rect8609" fill=" rgb(255, 102, 0)"/>
  </clipPath>
  <clipPath id="clipPath8611">
   <rect width="395.50385" height="138.17282" ry="18.904718" x="-413.25079" y="357.69519" id="rect8613" fill=" rgb(255, 102, 0)"/>
  </clipPath>
  <clipPath id="clipPath8713">
   <rect width="395.50385" height="138.17282" ry="18.904718" x="-413.25079" y="357.69519" id="rect8715" fill=" rgb(255, 102, 0)"/>
  </clipPath>
  <clipPath id="clipPath8717">
   <rect width="395.50385" height="138.17282" ry="18.904718" x="-413.25079" y="357.69519" id="rect8719" fill=" rgb(255, 102, 0)"/>
  </clipPath>
  <filter id="filter4311" x="-0.080444" width="1.160887" y="-0.207985" height="1.415971" color-interpolation-filters="sRGB">
   <feGaussianBlur stdDeviation="13.416198" id="feGaussianBlur4313"/>
  </filter>
  <clipPath clipPathUnits="userSpaceOnUse" id="clipPath4332">
   <rect width="400.26682" height="154.8131" ry="12.566516" x="-533.35815" y="555.21869" id="rect4334" opacity="0.55"/>
  </clipPath>
  <filter id="filter4393" color-interpolation-filters="sRGB">
   <feGaussianBlur stdDeviation="7.410068" id="feGaussianBlur4395"/>
  </filter>
  <linearGradient id="linearGradient3163">
   <stop id="stop3165" offset="0" stop-color=" rgb(249, 249, 249)"/>
   <stop id="stop3167" offset="1" stop-color=" rgb(249, 249, 249)"/>
  </linearGradient>
  <linearGradient xlink:href="#linearGradient3163" id="linearGradient3158" x1="0.587858" y1="0.703596" x2="0.592201" y2="-0.041427"/>
  <linearGradient xlink:href="#linearGradient3163" id="linearGradient3161" x1="0.412145" y1="0.296411" x2="0.407802" y2="1.041435"/>
 </defs>
 <metadata id="metadata4">image/svg+xml</metadata>
 <g>
  <title>Layer 1</title>
  <rect id="rect4391" y="18.370464" x="18.367163" ry="19.220732" height="236.78964" width="356.01581" filter="url(#filter4393)" stroke-width="1.16637" stroke="#000000" fill="#000000" opacity="0.55"/>
  <rect id="rect4371" y="642.195346" x="-43.675557" ry="12.566516" height="154.8131" width="400.26682" clip-path="url(#clipPath4332)" transform="matrix(0.889444, 0, 0, 1.52952, 489.561, -839.367)" filter="url(#filter4311)" stroke-miterlimit="4" stroke-width="44.252201" stroke="#000000" fill="none" opacity="0.716475"/>
  <rect width="356.01572" height="236.78964" ry="19.220732" x="18.034492" y="9.84728" id="rect4373" stroke-width="1.166372" stroke="#000000" fill="#ff0000" opacity="0.55"/>
  <path d="m49.177341,21.302021c-28.526991,-0.845352 -13.070511,18.16547 20.68214,24.164513c33.752647,5.999035 62.852585,7.982861 127.518555,-0.724148c52.460098,-7.06353 101.181473,7.119438 123.027023,1.133781c21.845612,-5.985649 38.217285,-24.354942 10.341064,-23.754866c-124.100281,2.671455 -184.901932,2.045282 -281.568783,-0.819281z" id="path4375" fill="url(#linearGradient3161)" opacity="0.55"/>
  <path id="path4377" d="m331.33075,234.909256c28.527008,0.831421 13.070557,-17.865891 -20.682129,-23.766006c-33.752655,-5.900101 -62.8526,-7.851227 -127.51857,0.712204c-52.460098,6.947052 -101.18148,-7.002029 -123.027031,-1.115082c-21.845619,5.886932 -38.217289,23.953308 -10.341061,23.363113c124.100285,-2.627411 184.901936,-2.011551 281.56879,0.805771z" fill="url(#linearGradient3158)" opacity="0.55"/>
 </g>
</svg>